{
  "name": "bs-crud-functors",
  "version": "7.1.1",
  "package-specs": {
    "module": "commonjs",
    "in-source": true
  },
  "suffix": ".bs.js",
  "sources": [
    "src",
    {
      "dir": "__tests__",
      "type": "dev"
    }
  ],
  "bs-dev-dependencies": [
    "@glennsl/bs-jest",
    "bs-mysql2"
  ],
  "bs-dependencies": [
    "@glennsl/bs-json",
    "bs-node-debug",
    "bs-sql-common",
    "bs-sql-composer",
    "reason-future"
  ],
  "bsc-flags": [ "-bs-super-errors", "-bs-sort-imports" ],
  "refmt": 3
}
